127.0.0.1 - - [24/Jan/2017:04:29:01 +0100] "GET / HTTP/1.1" 404 951
0:0:0:0:0:0:0:1 - - [24/Jan/2017:04:29:02 +0100] "GET /EmailWebApplicationBrowser/ HTTP/1.1" 404 1005
0:0:0:0:0:0:0:1 - - [24/Jan/2017:04:29:19 +0100] "GET /EmailWebApplicationBrowser/ClientServlet HTTP/1.1" 200 44
127.0.0.1 - - [24/Jan/2017:04:30:18 +0100] "GET / HTTP/1.1" 404 951
0:0:0:0:0:0:0:1 - - [24/Jan/2017:04:30:18 +0100] "GET /EmailWebApplicationBrowser/ HTTP/1.1" 404 1005
0:0:0:0:0:0:0:1 - - [24/Jan/2017:04:30:22 +0100] "GET /EmailWebApplicationBrowser/ClientServlet HTTP/1.1" 200 44
127.0.0.1 - - [24/Jan/2017:04:32:56 +0100] "GET / HTTP/1.1" 404 951
0:0:0:0:0:0:0:1 - - [24/Jan/2017:04:32:56 +0100] "GET /EmailWebApplicationBrowser/ HTTP/1.1" 404 1005
0:0:0:0:0:0:0:1 - - [24/Jan/2017:04:33:02 +0100] "GET /EmailWebApplicationBrowser/ClientServlet HTTP/1.1" 200 3
127.0.0.1 - - [24/Jan/2017:04:33:45 +0100] "GET / HTTP/1.1" 404 951
0:0:0:0:0:0:0:1 - - [24/Jan/2017:04:33:45 +0100] "GET /EmailWebApplicationBrowser/ HTTP/1.1" 404 1005
0:0:0:0:0:0:0:1 - - [24/Jan/2017:04:33:49 +0100] "GET /EmailWebApplicationBrowser/ClientServlet HTTP/1.1" 500 1813
127.0.0.1 - - [24/Jan/2017:04:38:24 +0100] "GET / HTTP/1.1" 404 951
0:0:0:0:0:0:0:1 - - [24/Jan/2017:04:38:24 +0100] "GET /EmailWebApplicationBrowser/ HTTP/1.1" 404 1005
0:0:0:0:0:0:0:1 - - [24/Jan/2017:04:39:30 +0100] "GET /EmailWebApplicationBrowser/ClientServlet HTTP/1.1" 500 1543
127.0.0.1 - - [24/Jan/2017:04:39:44 +0100] "GET / HTTP/1.1" 404 951
0:0:0:0:0:0:0:1 - - [24/Jan/2017:04:39:45 +0100] "GET /EmailWebApplicationBrowser/ HTTP/1.1" 404 1005
0:0:0:0:0:0:0:1 - - [24/Jan/2017:04:39:50 +0100] "GET /EmailWebApplicationBrowser/ClientServlet HTTP/1.1" 500 1543
127.0.0.1 - - [24/Jan/2017:05:22:03 +0100] "GET / HTTP/1.1" 404 951
0:0:0:0:0:0:0:1 - - [24/Jan/2017:05:22:03 +0100] "GET /EmailWebApplicationBrowser/ HTTP/1.1" 200 661
127.0.0.1 - - [24/Jan/2017:05:28:34 +0100] "GET / HTTP/1.1" 404 951
0:0:0:0:0:0:0:1 - - [24/Jan/2017:05:28:35 +0100] "GET /EmailWebApplicationBrowser/ HTTP/1.1" 200 682
0:0:0:0:0:0:0:1 - - [24/Jan/2017:05:28:39 +0100] "GET /EmailWebApplicationBrowser/ClientServlet? HTTP/1.1" 200 43
0:0:0:0:0:0:0:1 - - [24/Jan/2017:05:28:42 +0100] "GET /EmailWebApplicationBrowser/ HTTP/1.1" 200 682
0:0:0:0:0:0:0:1 - - [24/Jan/2017:05:28:47 +0100] "GET /EmailWebApplicationBrowser/ClientServlet? HTTP/1.1" 200 43
0:0:0:0:0:0:0:1 - - [24/Jan/2017:05:29:12 +0100] "GET /EmailWebApplicationBrowser/ HTTP/1.1" 304 -
0:0:0:0:0:0:0:1 - - [24/Jan/2017:05:29:18 +0100] "GET /EmailWebApplicationBrowser/ HTTP/1.1" 304 -
0:0:0:0:0:0:0:1 - - [24/Jan/2017:05:29:22 +0100] "GET /EmailWebApplicationBrowser/ HTTP/1.1" 304 -
127.0.0.1 - - [24/Jan/2017:05:32:00 +0100] "GET / HTTP/1.1" 404 951
0:0:0:0:0:0:0:1 - - [24/Jan/2017:05:32:01 +0100] "GET /EmailWebApplicationBrowser/ HTTP/1.1" 200 682
0:0:0:0:0:0:0:1 - - [24/Jan/2017:05:32:04 +0100] "GET /EmailWebApplicationBrowser/ClientServlet? HTTP/1.1" 200 43
0:0:0:0:0:0:0:1 - - [24/Jan/2017:05:32:39 +0100] "GET /EmailWebApplicationBrowser/ HTTP/1.1" 304 -
0:0:0:0:0:0:0:1 - - [24/Jan/2017:05:32:43 +0100] "GET /EmailWebApplicationBrowser/ClientServlet? HTTP/1.1" 200 43
127.0.0.1 - - [24/Jan/2017:05:34:03 +0100] "GET / HTTP/1.1" 404 951
0:0:0:0:0:0:0:1 - - [24/Jan/2017:05:34:03 +0100] "GET /EmailWebApplicationBrowser/ HTTP/1.1" 304 -
0:0:0:0:0:0:0:1 - - [24/Jan/2017:05:34:08 +0100] "GET /EmailWebApplicationBrowser/ClientServlet? HTTP/1.1" 200 43
0:0:0:0:0:0:0:1 - - [24/Jan/2017:05:34:23 +0100] "GET /EmailWebApplicationBrowser/ClientServlet? HTTP/1.1" 200 3
127.0.0.1 - - [24/Jan/2017:05:46:18 +0100] "GET / HTTP/1.1" 404 951
0:0:0:0:0:0:0:1 - - [24/Jan/2017:05:46:18 +0100] "GET /EmailWebApplicationBrowser/ HTTP/1.1" 304 -
0:0:0:0:0:0:0:1 - - [24/Jan/2017:05:46:23 +0100] "GET /EmailWebApplicationBrowser/ClientServlet? HTTP/1.1" 200 43
127.0.0.1 - - [24/Jan/2017:05:48:02 +0100] "GET / HTTP/1.1" 404 951
0:0:0:0:0:0:0:1 - - [24/Jan/2017:05:48:06 +0100] "GET /EmailWebApplicationBrowser/ClientServlet? HTTP/1.1" 200 49
127.0.0.1 - - [24/Jan/2017:05:49:36 +0100] "GET / HTTP/1.1" 404 951
0:0:0:0:0:0:0:1 - - [24/Jan/2017:05:49:37 +0100] "GET /EmailWebApplicationBrowser/ HTTP/1.1" 200 697
0:0:0:0:0:0:0:1 - - [24/Jan/2017:05:49:40 +0100] "GET /EmailWebApplicationBrowser/ClientServlet?username=jelena HTTP/1.1" 200 61
0:0:0:0:0:0:0:1 - - [24/Jan/2017:05:49:48 +0100] "GET /EmailWebApplicationBrowser/ HTTP/1.1" 200 697
0:0:0:0:0:0:0:1 - - [24/Jan/2017:05:50:16 +0100] "GET /EmailWebApplicationBrowser/ HTTP/1.1" 200 697
0:0:0:0:0:0:0:1 - - [24/Jan/2017:05:50:20 +0100] "GET /EmailWebApplicationBrowser/ClientServlet?username=dfsdf HTTP/1.1" 200 7
0:0:0:0:0:0:0:1 - - [24/Jan/2017:05:50:20 +0100] "GET /EmailWebApplicationBrowser/ClientServlet?username=sddfs HTTP/1.1" 200 37
0:0:0:0:0:0:0:1 - - [24/Jan/2017:05:50:33 +0100] "GET /EmailWebApplicationBrowser/ HTTP/1.1" 304 -
0:0:0:0:0:0:0:1 - - [24/Jan/2017:05:50:41 +0100] "GET /EmailWebApplicationBrowser/ HTTP/1.1" 304 -
0:0:0:0:0:0:0:1 - - [24/Jan/2017:05:50:46 +0100] "GET /EmailWebApplicationBrowser/ HTTP/1.1" 304 -
0:0:0:0:0:0:0:1 - - [24/Jan/2017:05:51:34 +0100] "GET /EmailWebApplicationBrowser/ HTTP/1.1" 304 -
0:0:0:0:0:0:0:1 - - [24/Jan/2017:05:51:37 +0100] "GET /EmailWebApplicationBrowser/ HTTP/1.1" 304 -
0:0:0:0:0:0:0:1 - - [24/Jan/2017:05:51:42 +0100] "GET /EmailWebApplicationBrowser/ HTTP/1.1" 304 -
0:0:0:0:0:0:0:1 - - [24/Jan/2017:05:52:06 +0100] "GET /EmailWebApplicationBrowser/ClientServlet?username=jelena HTTP/1.1" 200 8
0:0:0:0:0:0:0:1 - - [24/Jan/2017:05:52:06 +0100] "GET /EmailWebApplicationBrowser/ClientServlet?username=darko HTTP/1.1" 200 7
0:0:0:0:0:0:0:1 - - [24/Jan/2017:05:52:06 +0100] "GET /EmailWebApplicationBrowser/ClientServlet?username=jelena HTTP/1.1" 200 8
127.0.0.1 - - [24/Jan/2017:05:53:09 +0100] "GET / HTTP/1.1" 404 951
0:0:0:0:0:0:0:1 - - [24/Jan/2017:05:53:09 +0100] "GET /EmailWebApplicationBrowser/ HTTP/1.1" 200 698
0:0:0:0:0:0:0:1 - - [24/Jan/2017:05:53:16 +0100] "POST /EmailWebApplicationBrowser/ClientServlet HTTP/1.1" 200 53
127.0.0.1 - - [24/Jan/2017:09:22:10 +0100] "GET / HTTP/1.1" 404 951
0:0:0:0:0:0:0:1 - - [24/Jan/2017:09:22:11 +0100] "GET /EmailWebApplicationBrowser/ HTTP/1.1" 200 776
0:0:0:0:0:0:0:1 - - [24/Jan/2017:09:22:11 +0100] "GET /EmailWebApplicationBrowser/js/jquery-1.7.1.min.js HTTP/1.1" 200 93868
0:0:0:0:0:0:0:1 - - [24/Jan/2017:09:22:11 +0100] "GET /EmailWebApplicationBrowser/js/entrance.js HTTP/1.1" 200 1617
0:0:0:0:0:0:0:1 - - [24/Jan/2017:09:22:24 +0100] "POST /EmailWebApplicationBrowser HTTP/1.1" 302 -
0:0:0:0:0:0:0:1 - - [24/Jan/2017:09:22:24 +0100] "GET /EmailWebApplicationBrowser/ HTTP/1.1" 200 776
0:0:0:0:0:0:0:1 - - [24/Jan/2017:09:22:33 +0100] "POST /EmailWebApplicationBrowser HTTP/1.1" 302 -
0:0:0:0:0:0:0:1 - - [24/Jan/2017:09:22:33 +0100] "GET /EmailWebApplicationBrowser/ HTTP/1.1" 200 776
127.0.0.1 - - [24/Jan/2017:09:24:02 +0100] "GET / HTTP/1.1" 404 951
0:0:0:0:0:0:0:1 - - [24/Jan/2017:09:24:02 +0100] "GET /EmailWebApplicationBrowser/ HTTP/1.1" 200 794
0:0:0:0:0:0:0:1 - - [24/Jan/2017:09:24:15 +0100] "POST /EmailWebApplicationBrowser HTTP/1.1" 302 -
0:0:0:0:0:0:0:1 - - [24/Jan/2017:09:24:15 +0100] "GET /EmailWebApplicationBrowser/ HTTP/1.1" 200 794
127.0.0.1 - - [24/Jan/2017:09:28:15 +0100] "GET / HTTP/1.1" 404 951
0:0:0:0:0:0:0:1 - - [24/Jan/2017:09:28:16 +0100] "GET /EmailWebApplicationBrowser/ HTTP/1.1" 304 -
0:0:0:0:0:0:0:1 - - [24/Jan/2017:09:28:16 +0100] "GET /EmailWebApplicationBrowser/js/entrance.js HTTP/1.1" 200 1622
0:0:0:0:0:0:0:1 - - [24/Jan/2017:09:28:21 +0100] "POST /EmailWebApplicationBrowser HTTP/1.1" 302 -
0:0:0:0:0:0:0:1 - - [24/Jan/2017:09:28:21 +0100] "GET /EmailWebApplicationBrowser/ HTTP/1.1" 200 794
0:0:0:0:0:0:0:1 - - [24/Jan/2017:09:28:51 +0100] "GET /EmailWebApplicationBrowser/ HTTP/1.1" 304 -
0:0:0:0:0:0:0:1 - - [24/Jan/2017:09:28:54 +0100] "POST /EmailWebApplicationBrowser HTTP/1.1" 302 -
0:0:0:0:0:0:0:1 - - [24/Jan/2017:09:28:54 +0100] "GET /EmailWebApplicationBrowser/ HTTP/1.1" 200 794
127.0.0.1 - - [24/Jan/2017:09:29:25 +0100] "GET / HTTP/1.1" 404 951
0:0:0:0:0:0:0:1 - - [24/Jan/2017:09:29:25 +0100] "GET /EmailWebApplicationBrowser/ HTTP/1.1" 200 794
0:0:0:0:0:0:0:1 - - [24/Jan/2017:09:29:25 +0100] "GET /EmailWebApplicationBrowser/js/entrance.js HTTP/1.1" 200 1627
0:0:0:0:0:0:0:1 - - [24/Jan/2017:09:29:35 +0100] "POST /EmailWebApplicationBrowser HTTP/1.1" 302 -
0:0:0:0:0:0:0:1 - - [24/Jan/2017:09:29:35 +0100] "GET /EmailWebApplicationBrowser/ HTTP/1.1" 200 794
0:0:0:0:0:0:0:1 - - [24/Jan/2017:09:29:38 +0100] "POST /EmailWebApplicationBrowser HTTP/1.1" 302 -
0:0:0:0:0:0:0:1 - - [24/Jan/2017:09:29:38 +0100] "GET /EmailWebApplicationBrowser/ HTTP/1.1" 200 794
127.0.0.1 - - [24/Jan/2017:09:32:40 +0100] "GET / HTTP/1.1" 404 951
0:0:0:0:0:0:0:1 - - [24/Jan/2017:09:32:41 +0100] "GET /EmailWebApplicationBrowser/ HTTP/1.1" 304 -
0:0:0:0:0:0:0:1 - - [24/Jan/2017:09:32:41 +0100] "GET /EmailWebApplicationBrowser/js/entrance.js HTTP/1.1" 200 1623
0:0:0:0:0:0:0:1 - - [24/Jan/2017:09:32:41 +0100] "GET /EmailWebApplicationBrowser/js/jquery-1.7.1.min.js HTTP/1.1" 304 -
0:0:0:0:0:0:0:1 - - [24/Jan/2017:09:32:47 +0100] "POST /EmailWebApplicationBrowser/login HTTP/1.1" 404 1015
0:0:0:0:0:0:0:1 - - [24/Jan/2017:09:33:00 +0100] "POST /EmailWebApplicationBrowser/login/register HTTP/1.1" 404 1033
0:0:0:0:0:0:0:1 - - [24/Jan/2017:09:33:06 +0100] "POST /EmailWebApplicationBrowser/login HTTP/1.1" 404 1015
127.0.0.1 - - [24/Jan/2017:09:39:40 +0100] "GET / HTTP/1.1" 404 951
0:0:0:0:0:0:0:1 - - [24/Jan/2017:09:39:40 +0100] "GET /EmailWebApplicationBrowser/ HTTP/1.1" 304 -
0:0:0:0:0:0:0:1 - - [24/Jan/2017:09:39:40 +0100] "GET /EmailWebApplicationBrowser/js/entrance.js HTTP/1.1" 200 1629
0:0:0:0:0:0:0:1 - - [24/Jan/2017:09:39:45 +0100] "POST /EmailWebApplicationBrowser/login/register HTTP/1.1" 404 1033
0:0:0:0:0:0:0:1 - - [24/Jan/2017:09:39:49 +0100] "POST /EmailWebApplicationBrowser/login/register HTTP/1.1" 404 1033
0:0:0:0:0:0:0:1 - - [24/Jan/2017:09:39:53 +0100] "POST /EmailWebApplicationBrowser/login/register HTTP/1.1" 404 1033
127.0.0.1 - - [24/Jan/2017:11:42:16 +0100] "GET / HTTP/1.1" 404 951
0:0:0:0:0:0:0:1 - - [24/Jan/2017:11:42:17 +0100] "GET /EmailWebApplicationBrowser/ HTTP/1.1" 200 776
0:0:0:0:0:0:0:1 - - [24/Jan/2017:11:42:17 +0100] "GET /EmailWebApplicationBrowser/js/jquery-1.7.1.min.js HTTP/1.1" 200 93868
0:0:0:0:0:0:0:1 - - [24/Jan/2017:11:42:17 +0100] "GET /EmailWebApplicationBrowser/js/entrance.js HTTP/1.1" 200 1629
0:0:0:0:0:0:0:1 - - [24/Jan/2017:11:42:33 +0100] "POST /EmailWebApplicationBrowser/login/register HTTP/1.1" 404 1033
0:0:0:0:0:0:0:1 - - [24/Jan/2017:11:43:27 +0100] "POST /EmailWebApplicationBrowser/login/register HTTP/1.1" 404 1033
127.0.0.1 - - [24/Jan/2017:11:44:28 +0100] "GET / HTTP/1.1" 404 951
0:0:0:0:0:0:0:1 - - [24/Jan/2017:11:44:28 +0100] "GET /EmailWebApplicationBrowser/ HTTP/1.1" 304 -
0:0:0:0:0:0:0:1 - - [24/Jan/2017:11:44:35 +0100] "POST /EmailWebApplicationBrowser/login/register HTTP/1.1" 404 1033
127.0.0.1 - - [24/Jan/2017:11:45:58 +0100] "GET / HTTP/1.1" 404 951
0:0:0:0:0:0:0:1 - - [24/Jan/2017:11:45:58 +0100] "GET /EmailWebApplicationBrowser/ HTTP/1.1" 304 -
0:0:0:0:0:0:0:1 - - [24/Jan/2017:11:46:04 +0100] "POST /EmailWebApplicationBrowser/login/register HTTP/1.1" 404 1033
127.0.0.1 - - [24/Jan/2017:11:49:22 +0100] "GET / HTTP/1.1" 404 951
0:0:0:0:0:0:0:1 - - [24/Jan/2017:11:49:22 +0100] "GET /EmailWebApplicationBrowser/ HTTP/1.1" 304 -
0:0:0:0:0:0:0:1 - - [24/Jan/2017:11:49:26 +0100] "POST /EmailWebApplicationBrowser/login/register HTTP/1.1" 404 1033
0:0:0:0:0:0:0:1 - - [24/Jan/2017:11:49:38 +0100] "GET /EmailWebApplicationBrowser/ HTTP/1.1" 200 776
0:0:0:0:0:0:0:1 - - [24/Jan/2017:11:49:38 +0100] "GET /EmailWebApplicationBrowser/js/entrance.js HTTP/1.1" 200 1631
0:0:0:0:0:0:0:1 - - [24/Jan/2017:11:49:38 +0100] "GET /EmailWebApplicationBrowser/js/jquery-1.7.1.min.js HTTP/1.1" 200 93868
0:0:0:0:0:0:0:1 - - [24/Jan/2017:11:49:39 +0100] "GET /favicon.ico HTTP/1.1" 404 973
0:0:0:0:0:0:0:1 - - [24/Jan/2017:11:49:44 +0100] "POST /EmailWebApplicationBrowser/register HTTP/1.1" 404 1021
0:0:0:0:0:0:0:1 - - [24/Jan/2017:11:49:44 +0100] "GET /EmailWebApplicationBrowser/?username=jelena HTTP/1.1" 200 776
0:0:0:0:0:0:0:1 - - [24/Jan/2017:11:49:49 +0100] "GET /EmailWebApplicationBrowser/js/entrance.js HTTP/1.1" 304 -
127.0.0.1 - - [24/Jan/2017:11:53:56 +0100] "GET / HTTP/1.1" 404 951
0:0:0:0:0:0:0:1 - - [24/Jan/2017:11:53:57 +0100] "GET /EmailWebApplicationBrowser/ HTTP/1.1" 304 -
0:0:0:0:0:0:0:1 - - [24/Jan/2017:11:54:02 +0100] "POST /EmailWebApplicationBrowser/login/register HTTP/1.1" 404 1033
127.0.0.1 - - [24/Jan/2017:11:54:35 +0100] "GET / HTTP/1.1" 404 951
0:0:0:0:0:0:0:1 - - [24/Jan/2017:11:54:35 +0100] "GET /EmailWebApplicationBrowser/js/entrance.js HTTP/1.1" 200 1640
0:0:0:0:0:0:0:1 - - [24/Jan/2017:11:54:41 +0100] "GET /EmailWebApplicationBrowser/?username=jelena HTTP/1.1" 200 776
0:0:0:0:0:0:0:1 - - [24/Jan/2017:11:54:41 +0100] "GET /EmailWebApplicationBrowser/js/entrance.js HTTP/1.1" 304 -
127.0.0.1 - - [24/Jan/2017:12:00:33 +0100] "GET / HTTP/1.1" 404 951
0:0:0:0:0:0:0:1 - - [24/Jan/2017:12:00:33 +0100] "GET /EmailWebApplicationBrowser/ HTTP/1.1" 304 -
0:0:0:0:0:0:0:1 - - [24/Jan/2017:12:00:33 +0100] "GET /EmailWebApplicationBrowser/js/entrance.js HTTP/1.1" 200 1625
127.0.0.1 - - [24/Jan/2017:12:04:14 +0100] "GET / HTTP/1.1" 404 951
0:0:0:0:0:0:0:1 - - [24/Jan/2017:12:04:14 +0100] "GET /EmailWebApplicationBrowser/ HTTP/1.1" 304 -
0:0:0:0:0:0:0:1 - - [24/Jan/2017:12:04:14 +0100] "GET /EmailWebApplicationBrowser/js/entrance.js HTTP/1.1" 200 1621
0:0:0:0:0:0:0:1 - - [24/Jan/2017:12:05:40 +0100] "GET /EmailWebApplicationBrowser/?username=jelena HTTP/1.1" 304 -
0:0:0:0:0:0:0:1 - - [24/Jan/2017:12:05:40 +0100] "GET /EmailWebApplicationBrowser/js/jquery-1.7.1.min.js HTTP/1.1" 304 -
0:0:0:0:0:0:0:1 - - [24/Jan/2017:12:05:40 +0100] "GET /EmailWebApplicationBrowser/js/entrance.js HTTP/1.1" 304 -
127.0.0.1 - - [24/Jan/2017:12:06:00 +0100] "GET / HTTP/1.1" 404 951
0:0:0:0:0:0:0:1 - - [24/Jan/2017:12:06:00 +0100] "GET /EmailWebApplicationBrowser/js/entrance.js HTTP/1.1" 200 1617
127.0.0.1 - - [24/Jan/2017:12:09:33 +0100] "GET / HTTP/1.1" 404 951
0:0:0:0:0:0:0:1 - - [24/Jan/2017:12:09:33 +0100] "GET /EmailWebApplicationBrowser/ HTTP/1.1" 304 -
0:0:0:0:0:0:0:1 - - [24/Jan/2017:12:09:33 +0100] "GET /EmailWebApplicationBrowser/js/entrance.js HTTP/1.1" 200 1621
127.0.0.1 - - [24/Jan/2017:12:10:00 +0100] "GET / HTTP/1.1" 404 951
0:0:0:0:0:0:0:1 - - [24/Jan/2017:12:10:01 +0100] "GET /EmailWebApplicationBrowser/js/entrance.js HTTP/1.1" 304 -
127.0.0.1 - - [24/Jan/2017:12:11:03 +0100] "GET / HTTP/1.1" 404 951
0:0:0:0:0:0:0:1 - - [24/Jan/2017:12:11:03 +0100] "GET /EmailWebApplicationBrowser/js/entrance.js HTTP/1.1" 200 1626
127.0.0.1 - - [24/Jan/2017:12:16:52 +0100] "GET / HTTP/1.1" 404 951
0:0:0:0:0:0:0:1 - - [24/Jan/2017:12:16:53 +0100] "GET /EmailWebApplicationBrowser/ HTTP/1.1" 200 829
0:0:0:0:0:0:0:1 - - [24/Jan/2017:12:16:53 +0100] "GET /EmailWebApplicationBrowser/js/entrance.js HTTP/1.1" 200 1666
127.0.0.1 - - [24/Jan/2017:12:21:41 +0100] "GET / HTTP/1.1" 404 951
0:0:0:0:0:0:0:1 - - [24/Jan/2017:12:21:42 +0100] "GET /EmailWebApplicationBrowser/ HTTP/1.1" 200 997
0:0:0:0:0:0:0:1 - - [24/Jan/2017:12:21:42 +0100] "GET /EmailWebApplicationBrowser/js/entrance.js HTTP/1.1" 200 1760
127.0.0.1 - - [24/Jan/2017:12:29:20 +0100] "GET / HTTP/1.1" 404 951
0:0:0:0:0:0:0:1 - - [24/Jan/2017:12:29:22 +0100] "GET /EmailWebApplicationBrowser/ HTTP/1.1" 304 -
0:0:0:0:0:0:0:1 - - [24/Jan/2017:12:29:23 +0100] "GET /EmailWebApplicationBrowser/js/entrance.js HTTP/1.1" 200 1802
127.0.0.1 - - [24/Jan/2017:12:30:44 +0100] "GET / HTTP/1.1" 404 951
0:0:0:0:0:0:0:1 - - [24/Jan/2017:12:30:44 +0100] "GET /EmailWebApplicationBrowser/ HTTP/1.1" 304 -
0:0:0:0:0:0:0:1 - - [24/Jan/2017:12:30:45 +0100] "GET /EmailWebApplicationBrowser/js/entrance.js HTTP/1.1" 200 1802
127.0.0.1 - - [24/Jan/2017:12:34:04 +0100] "GET / HTTP/1.1" 404 951
0:0:0:0:0:0:0:1 - - [24/Jan/2017:12:34:05 +0100] "GET /EmailWebApplicationBrowser/ HTTP/1.1" 200 1013
0:0:0:0:0:0:0:1 - - [24/Jan/2017:12:34:05 +0100] "GET /EmailWebApplicationBrowser/js/entrance.js HTTP/1.1" 304 -
0:0:0:0:0:0:0:1 - - [24/Jan/2017:12:34:05 +0100] "GET /EmailWebApplicationBrowser/js/jquery-1.7.1.min.js HTTP/1.1" 304 -
0:0:0:0:0:0:0:1 - - [24/Jan/2017:12:34:18 +0100] "POST /EmailWebApplicationBrowser HTTP/1.1" 302 -
0:0:0:0:0:0:0:1 - - [24/Jan/2017:12:34:18 +0100] "GET /EmailWebApplicationBrowser/ HTTP/1.1" 200 1013
127.0.0.1 - - [24/Jan/2017:12:35:04 +0100] "GET / HTTP/1.1" 404 951
0:0:0:0:0:0:0:1 - - [24/Jan/2017:12:35:04 +0100] "GET /EmailWebApplicationBrowser/ HTTP/1.1" 200 1015
0:0:0:0:0:0:0:1 - - [24/Jan/2017:12:35:04 +0100] "GET /EmailWebApplicationBrowser/js/entrance.js HTTP/1.1" 304 -
127.0.0.1 - - [24/Jan/2017:12:37:51 +0100] "GET / HTTP/1.1" 404 951
0:0:0:0:0:0:0:1 - - [24/Jan/2017:12:37:51 +0100] "GET /EmailWebApplicationBrowser/ HTTP/1.1" 304 -
0:0:0:0:0:0:0:1 - - [24/Jan/2017:12:37:51 +0100] "GET /EmailWebApplicationBrowser/js/entrance.js HTTP/1.1" 200 1816
0:0:0:0:0:0:0:1 - - [24/Jan/2017:12:37:58 +0100] "POST /EmailWebApplicationBrowser HTTP/1.1" 302 -
0:0:0:0:0:0:0:1 - - [24/Jan/2017:12:37:58 +0100] "GET /EmailWebApplicationBrowser/ HTTP/1.1" 200 1015
127.0.0.1 - - [24/Jan/2017:12:43:42 +0100] "GET / HTTP/1.1" 404 951
0:0:0:0:0:0:0:1 - - [24/Jan/2017:12:43:43 +0100] "GET /EmailWebApplicationBrowser/ HTTP/1.1" 304 -
0:0:0:0:0:0:0:1 - - [24/Jan/2017:12:43:44 +0100] "GET /EmailWebApplicationBrowser/js/entrance.js HTTP/1.1" 200 1864
0:0:0:0:0:0:0:1 - - [24/Jan/2017:12:43:55 +0100] "GET /EmailWebApplicationBrowser/?username=jelena HTTP/1.1" 200 1015
0:0:0:0:0:0:0:1 - - [24/Jan/2017:12:43:55 +0100] "GET /EmailWebApplicationBrowser/js/entrance.js HTTP/1.1" 304 -
0:0:0:0:0:0:0:1 - - [24/Jan/2017:12:44:11 +0100] "GET /EmailWebApplicationBrowser/?username=jelena HTTP/1.1" 200 1015
0:0:0:0:0:0:0:1 - - [24/Jan/2017:12:44:11 +0100] "GET /EmailWebApplicationBrowser/js/entrance.js HTTP/1.1" 304 -
127.0.0.1 - - [24/Jan/2017:12:45:46 +0100] "GET / HTTP/1.1" 404 951
0:0:0:0:0:0:0:1 - - [24/Jan/2017:12:45:46 +0100] "GET /EmailWebApplicationBrowser/ HTTP/1.1" 304 -
0:0:0:0:0:0:0:1 - - [24/Jan/2017:12:45:46 +0100] "GET /EmailWebApplicationBrowser/js/entrance.js HTTP/1.1" 200 1875
0:0:0:0:0:0:0:1 - - [24/Jan/2017:12:45:52 +0100] "GET /EmailWebApplicationBrowser/?username=jelena HTTP/1.1" 304 -
0:0:0:0:0:0:0:1 - - [24/Jan/2017:12:45:52 +0100] "GET /EmailWebApplicationBrowser/js/entrance.js HTTP/1.1" 304 -
0:0:0:0:0:0:0:1 - - [24/Jan/2017:12:45:55 +0100] "GET /EmailWebApplicationBrowser/js/entrance.js HTTP/1.1" 304 -
0:0:0:0:0:0:0:1 - - [24/Jan/2017:12:45:57 +0100] "GET /EmailWebApplicationBrowser/js/entrance.js HTTP/1.1" 304 -
127.0.0.1 - - [24/Jan/2017:22:39:25 +0100] "GET / HTTP/1.1" 404 951
0:0:0:0:0:0:0:1 - - [24/Jan/2017:22:39:31 +0100] "GET /EmailWebApplicationBrowser/ HTTP/1.1" 200 1015
0:0:0:0:0:0:0:1 - - [24/Jan/2017:22:39:31 +0100] "GET /EmailWebApplicationBrowser/js/jquery-1.7.1.min.js HTTP/1.1" 200 93868
0:0:0:0:0:0:0:1 - - [24/Jan/2017:22:39:31 +0100] "GET /EmailWebApplicationBrowser/js/entrance.js HTTP/1.1" 200 1864
0:0:0:0:0:0:0:1 - - [24/Jan/2017:22:39:47 +0100] "GET /EmailWebApplicationBrowser/ HTTP/1.1" 200 1015
0:0:0:0:0:0:0:1 - - [24/Jan/2017:22:39:47 +0100] "GET /EmailWebApplicationBrowser/js/jquery-1.7.1.min.js HTTP/1.1" 304 -
0:0:0:0:0:0:0:1 - - [24/Jan/2017:22:39:48 +0100] "GET /EmailWebApplicationBrowser/js/entrance.js HTTP/1.1" 200 1864
0:0:0:0:0:0:0:1 - - [24/Jan/2017:22:39:48 +0100] "GET /favicon.ico HTTP/1.1" 404 973
0:0:0:0:0:0:0:1 - - [24/Jan/2017:22:39:57 +0100] "GET /EmailWebApplicationBrowser/?username=jelena HTTP/1.1" 200 1015
127.0.0.1 - - [24/Jan/2017:22:41:43 +0100] "GET / HTTP/1.1" 404 951
0:0:0:0:0:0:0:1 - - [24/Jan/2017:22:41:47 +0100] "GET /EmailWebApplicationBrowser HTTP/1.1" 302 -
0:0:0:0:0:0:0:1 - - [24/Jan/2017:22:41:51 +0100] "GET /EmailWebApplicationBrowser/ HTTP/1.1" 304 -
127.0.0.1 - - [24/Jan/2017:22:42:17 +0100] "GET / HTTP/1.1" 404 951
0:0:0:0:0:0:0:1 - - [24/Jan/2017:22:50:21 +0100] "GET /EmailWebApplicationBrowser/ HTTP/1.1" 200 1015
0:0:0:0:0:0:0:1 - - [24/Jan/2017:22:50:22 +0100] "GET /EmailWebApplicationBrowser/js/entrance.js HTTP/1.1" 200 1860
0:0:0:0:0:0:0:1 - - [24/Jan/2017:22:50:22 +0100] "GET /EmailWebApplicationBrowser/js/jquery-1.7.1.min.js HTTP/1.1" 200 93868
0:0:0:0:0:0:0:1 - - [24/Jan/2017:22:50:35 +0100] "GET /EmailWebApplicationBrowser/?username=jelena HTTP/1.1" 200 1015
0:0:0:0:0:0:0:1 - - [24/Jan/2017:22:50:35 +0100] "GET /EmailWebApplicationBrowser/js/jquery-1.7.1.min.js HTTP/1.1" 200 93868
0:0:0:0:0:0:0:1 - - [24/Jan/2017:22:50:35 +0100] "GET /EmailWebApplicationBrowser/js/entrance.js HTTP/1.1" 200 1860
0:0:0:0:0:0:0:1 - - [24/Jan/2017:22:51:32 +0100] "GET /EmailWebApplicationBrowser/?username=jelena HTTP/1.1" 200 1015
0:0:0:0:0:0:0:1 - - [24/Jan/2017:22:51:32 +0100] "GET /EmailWebApplicationBrowser/js/entrance.js HTTP/1.1" 200 1860
0:0:0:0:0:0:0:1 - - [24/Jan/2017:22:51:32 +0100] "GET /EmailWebApplicationBrowser/js/jquery-1.7.1.min.js HTTP/1.1" 200 93868
127.0.0.1 - - [24/Jan/2017:22:53:46 +0100] "GET / HTTP/1.1" 404 951
0:0:0:0:0:0:0:1 - - [24/Jan/2017:22:53:54 +0100] "GET /EmailWebApplicationBrowser/?username=jelena HTTP/1.1" 200 1015
0:0:0:0:0:0:0:1 - - [24/Jan/2017:22:53:54 +0100] "GET /EmailWebApplicationBrowser/js/jquery-1.7.1.min.js HTTP/1.1" 200 93868
0:0:0:0:0:0:0:1 - - [24/Jan/2017:22:53:54 +0100] "GET /EmailWebApplicationBrowser/js/entrance.js HTTP/1.1" 200 1902
127.0.0.1 - - [24/Jan/2017:22:55:22 +0100] "GET / HTTP/1.1" 404 951
0:0:0:0:0:0:0:1 - - [24/Jan/2017:22:55:23 +0100] "GET /EmailWebApplicationBrowser/ HTTP/1.1" 200 987
0:0:0:0:0:0:0:1 - - [24/Jan/2017:22:55:23 +0100] "GET /EmailWebApplicationBrowser/js/entrance.js HTTP/1.1" 200 1902
0:0:0:0:0:0:0:1 - - [24/Jan/2017:22:55:23 +0100] "GET /EmailWebApplicationBrowser/js/jquery-1.7.1.min.js HTTP/1.1" 200 93868
0:0:0:0:0:0:0:1 - - [24/Jan/2017:22:55:29 +0100] "GET /EmailWebApplicationBrowser/?username=jelena HTTP/1.1" 200 987
0:0:0:0:0:0:0:1 - - [24/Jan/2017:22:55:29 +0100] "GET /EmailWebApplicationBrowser/js/jquery-1.7.1.min.js HTTP/1.1" 200 93868
0:0:0:0:0:0:0:1 - - [24/Jan/2017:22:55:29 +0100] "GET /EmailWebApplicationBrowser/js/entrance.js HTTP/1.1" 200 1902
0:0:0:0:0:0:0:1 - - [24/Jan/2017:22:55:43 +0100] "GET /EmailWebApplicationBrowser/?username=jelena HTTP/1.1" 200 987
0:0:0:0:0:0:0:1 - - [24/Jan/2017:22:55:51 +0100] "GET /EmailWebApplicationBrowser/?username= HTTP/1.1" 200 987
127.0.0.1 - - [24/Jan/2017:22:57:04 +0100] "GET / HTTP/1.1" 404 951
0:0:0:0:0:0:0:1 - - [24/Jan/2017:22:57:08 +0100] "GET /EmailWebApplicationBrowser/ HTTP/1.1" 200 987
0:0:0:0:0:0:0:1 - - [24/Jan/2017:22:57:08 +0100] "GET /EmailWebApplicationBrowser/js/entrance.js HTTP/1.1" 200 1904
0:0:0:0:0:0:0:1 - - [24/Jan/2017:22:57:08 +0100] "GET /EmailWebApplicationBrowser/js/jquery-1.7.1.min.js HTTP/1.1" 200 93868
127.0.0.1 - - [24/Jan/2017:22:59:46 +0100] "GET / HTTP/1.1" 404 951
0:0:0:0:0:0:0:1 - - [24/Jan/2017:22:59:49 +0100] "GET /EmailWebApplicationBrowser/ HTTP/1.1" 200 987
0:0:0:0:0:0:0:1 - - [24/Jan/2017:22:59:49 +0100] "GET /EmailWebApplicationBrowser/js/entrance.js HTTP/1.1" 200 1911
0:0:0:0:0:0:0:1 - - [24/Jan/2017:22:59:49 +0100] "GET /EmailWebApplicationBrowser/js/jquery-1.7.1.min.js HTTP/1.1" 200 93868
0:0:0:0:0:0:0:1 - - [24/Jan/2017:22:59:54 +0100] "POST /EmailWebApplicationBrowser HTTP/1.1" 302 -
0:0:0:0:0:0:0:1 - - [24/Jan/2017:22:59:54 +0100] "GET /EmailWebApplicationBrowser/ HTTP/1.1" 200 987
0:0:0:0:0:0:0:1 - - [24/Jan/2017:23:04:12 +0100] "POST /EmailWebApplicationBrowser HTTP/1.1" 302 -
0:0:0:0:0:0:0:1 - - [24/Jan/2017:23:04:12 +0100] "GET /EmailWebApplicationBrowser/ HTTP/1.1" 200 987
0:0:0:0:0:0:0:1 - - [24/Jan/2017:23:08:38 +0100] "GET /EmailWebApplicationBrowser/login HTTP/1.1" 404 1015
0:0:0:0:0:0:0:1 - - [24/Jan/2017:23:08:42 +0100] "GET /EmailWebApplicationBrowser/ HTTP/1.1" 200 987
0:0:0:0:0:0:0:1 - - [24/Jan/2017:23:08:42 +0100] "GET /EmailWebApplicationBrowser/js/jquery-1.7.1.min.js HTTP/1.1" 200 93868
0:0:0:0:0:0:0:1 - - [24/Jan/2017:23:08:42 +0100] "GET /EmailWebApplicationBrowser/js/entrance.js HTTP/1.1" 200 1911
127.0.0.1 - - [24/Jan/2017:23:09:31 +0100] "GET / HTTP/1.1" 404 951
0:0:0:0:0:0:0:1 - - [24/Jan/2017:23:09:36 +0100] "GET /EmailWebApplicationBrowser/ HTTP/1.1" 200 987
0:0:0:0:0:0:0:1 - - [24/Jan/2017:23:09:36 +0100] "GET /EmailWebApplicationBrowser/js/jquery-1.7.1.min.js HTTP/1.1" 200 93868
0:0:0:0:0:0:0:1 - - [24/Jan/2017:23:09:36 +0100] "GET /EmailWebApplicationBrowser/js/entrance.js HTTP/1.1" 200 1911
0:0:0:0:0:0:0:1 - - [24/Jan/2017:23:09:43 +0100] "GET /EmailWebApplicationBrowser/login HTTP/1.1" 404 1015
